%YAML 1.1
%TAG !u! tag:unity3d.com,2011:
--- !u!114 &11400000
MonoBehaviour:
  m_ObjectHideFlags: 0
  m_PrefabParentObject: {fileID: 0}
  m_PrefabInternal: {fileID: 0}
  m_GameObject: {fileID: 0}
  m_Enabled: 1
  m_EditorHideFlags: 0
  m_Script: {fileID: 11500000, guid: 09d233bb953fd9e4682991a832014ee6, type: 3}
  m_Name: -SpawnerAlmostFake_Single
  m_EditorClassIdentifier: 
  delay: 2
  cooldown: 0
  enemyCount: 1
  enemyInfo: {fileID: 11400000, guid: bac180851c2c0c843a45d6706add1060, type: 2}
