%YAML 1.1
%TAG !u! tag:unity3d.com,2011:
--- !u!114 &11400000
MonoBehaviour:
  m_ObjectHideFlags: 0
  m_PrefabParentObject: {fileID: 0}
  m_PrefabInternal: {fileID: 0}
  m_GameObject: {fileID: 0}
  m_Enabled: 1
  m_EditorHideFlags: 0
  m_Script: {fileID: 11500000, guid: 09d233bb953fd9e4682991a832014ee6, type: 3}
  m_Name: -SpawnerDefault4
  m_EditorClassIdentifier: 
  delay: 0
  cooldown: 1
  enemyCount: 4
  enemyInfo: {fileID: 11400000, guid: 167cac9118ffa0548a8319cbabb5428e, type: 2}
