%YAML 1.1
%TAG !u! tag:unity3d.com,2011:
--- !u!114 &11400000
MonoBehaviour:
  m_ObjectHideFlags: 0
  m_PrefabParentObject: {fileID: 0}
  m_PrefabInternal: {fileID: 0}
  m_GameObject: {fileID: 0}
  m_Enabled: 1
  m_EditorHideFlags: 0
  m_Script: {fileID: 11500000, guid: 3307755775a477e4b869fbbc19d299cb, type: 3}
  m_Name: LayoutXWeapon
  m_EditorClassIdentifier: 
  center: {fileID: 0}
  top: {fileID: 0}
  topRight: {fileID: 0}
  right: {fileID: 0}
  botRight: {fileID: 0}
  bot: {fileID: 0}
  botLeft: {fileID: 0}
  left: {fileID: 0}
  topLeft: {fileID: 0}
  item: {fileID: 1705337549559392, guid: 319e56c0c4b53dd4782c52e5a5c7e393, type: 2}
