%YAML 1.1
%TAG !u! tag:unity3d.com,2011:
--- !u!114 &11400000
MonoBehaviour:
  m_ObjectHideFlags: 0
  m_PrefabParentObject: {fileID: 0}
  m_PrefabInternal: {fileID: 0}
  m_GameObject: {fileID: 0}
  m_Enabled: 1
  m_EditorHideFlags: 0
  m_Script: {fileID: 11500000, guid: e1d29a6e17ccc574e9a1e5f9de1d22a0, type: 3}
  m_Name: 5
  m_EditorClassIdentifier: 
  offsetsX:
  - -0.56
  - -0.36
  - -0.16
  - 0.04
  - 0.24
  offsetsY:
  - -0.05
  - -0.15
  - 0.05
  - -0.15
  - -0.05
